Deterministic Categorization of Items Based on External Code Data • rOpenSci: coder
…
Index: Now, instead of working with tens of thousands of individual ICD-codes, each patient might be recognized to have none or some familiar comorbidity such as hypertension, cancer or dementia. This granularity might be too fine-grained still, wherefore an even simpler index score might be searched for. Such scores/indices/weighted sums have been proposed as well and exist in many versions for each of the standard classifications. Some are simple counts, some are weighted sums, and some accounts for some inherited hierarchy (such that ICD-codes for diabetes with and without complications might be recognized in the same patient, although the un-complicated version might be masked by the complicated version in the index).

Conditions: Some further complexity might appear if some codes are only supposed to be recognized based on certain conditions. Patients with THA for example might have an adverse event after surgery if a certain ICD-code is recorded as the main diagnose at a later hospital visit, although the same code could be ignored if recorded only as a secondary diagnosis.

To summarize: The coder package takes three objects: (1) a data frame/table/tibble with id and possible dates from a primary source; (2) coded data from a secondary source with the same id and possibly different dates and; (3) a classcodes object, either a default one from the package, or as specified by the user. The outcome is then: (i) codes associated with each element from (1) identified from (2), possibly limited to a relevant time window; (ii) a broader categorization of the relevant codes as prescribed by (3), and; (iii) a summarized index score based on the relevant categories from (3).

(i-iii) corresponds to the output from functions codify(), classify() and index(), which could be chained explicitly as codify() %>% classify() %>% index(), or implicitly by the categorize() function.

Usage

Assume we have some patients with surgery at specified dates:

library(coder)
ex_people
#> # A tibble: 100 x 2
#>    name              surgery   
#>    <chr>             <date>    
#>  1 Chen, Trevor      2021-01-04
#>  2 Graves, Acineth   2020-09-26
#>  3 Trujillo, Yanelly 2020-09-13
#>  4 Simpson, Kenneth  2020-12-16
#>  5 Chin, Nelson      2020-11-29
#>  6 Le, Christina     2020-07-03
#>  7 Kang, Xuan        2020-10-05
#>  8 Shuemaker, Lauren 2020-07-04
#>  9 Boucher, Teresa   2020-12-10
#> 10 Le, Soraiya       2020-11-14
#> # ... with 90 more rows

Those patients (among others) were also recorded in a national patient register with date of hospital admissions and diagnoses codes coded by the International Classification of Diseases (ICD) version 10:

ex_icd10
#> # A tibble: 2,376 x 4
#>    name                 admission  icd10 hdia 
#>    <chr>                <date>     <chr> <lgl>
#>  1 Tran, Kenneth        2020-07-18 S134A FALSE
#>  2 Tran, Kenneth        2021-01-01 W3319 FALSE
#>  3 Tran, Kenneth        2020-12-11 Y0262 TRUE 
#>  4 Tran, Kenneth        2020-11-03 X0488 FALSE
#>  5 Sommerville, Dominic 2020-12-23 V8104 FALSE
#>  6 Sommerville, Dominic 2020-08-03 B853  FALSE
#>  7 Sommerville, Dominic 2020-12-18 Q174  FALSE
#>  8 Sommerville, Dominic 2020-08-08 A227  FALSE
#>  9 Sommerville, Dominic 2020-12-13 H702  FALSE
#> 10 Sommerville, Dominic 2020-04-06 X6051 TRUE 
#> # ... with 2,366 more rows

Using those two data sets, as well as a classification scheme (classcodes object; see below), we can easily identify all Charlson comorbidities for each patient:

ch <- 
  categorize(
    ex_people,                  # patients of interest 
    codedata = ex_icd10,        # Medical codes from national patient register
    cc = "charlson",            # Calculate Charlson comorbidity
    id = "name", code = "icd10" # Specify column names
  )
#> Classification based on: icd10

ch
#> # A tibble: 100 x 25
#>    name  surgery    myocardial.infa~ congestive.hear~ peripheral.vasc~
#>    <chr> <date>     <lgl>            <lgl>            <lgl>           
#>  1 Chen~ 2021-01-04 FALSE            FALSE            FALSE           
#>  2 Grav~ 2020-09-26 FALSE            FALSE            FALSE           
#>  3 Truj~ 2020-09-13 FALSE            FALSE            FALSE           
#>  4 Simp~ 2020-12-16 FALSE            FALSE            FALSE           
#>  5 Chin~ 2020-11-29 FALSE            FALSE            FALSE           
#>  6 Le, ~ 2020-07-03 FALSE            FALSE            FALSE           
#>  7 Kang~ 2020-10-05 FALSE            FALSE            FALSE           
#>  8 Shue~ 2020-07-04 FALSE            FALSE            FALSE           
#>  9 Bouc~ 2020-12-10 FALSE            FALSE            TRUE            
#> 10 Le, ~ 2020-11-14 FALSE            FALSE            FALSE           
#> # ... with 90 more rows, and 20 more variables: cerebrovascular.disease <lgl>,
#> #   dementia <lgl>, chronic.pulmonary.disease <lgl>, rheumatic.disease <lgl>,
#> #   peptic.ulcer.disease <lgl>, mild.liver.disease <lgl>,
#> #   diabetes.without.complication <lgl>, hemiplegia.or.paraplegia <lgl>,
#> #   renal.disease <lgl>, diabetes.complication <lgl>, malignancy <lgl>,
#> #   moderate.or.severe.liver.disease <lgl>, metastatic.solid.tumor <lgl>,
#> #   AIDS.HIV <lgl>, charlson <dbl>, deyo_ramano <dbl>, dhoore <dbl>,
#> #   ghali <dbl>, quan_original <dbl>, quan_updated <dbl>
…
