Categorize cases based on external data and classification scheme — categorize • rOpenSci: coder
…
    Examples

# For some patient data (ex_people) and related hospital visit code data
# with ICD 10-codes (ex_icd10), add the Elixhauser comorbidity
# conditions based on all registered ICD10-codes
categorize(
   x            = ex_people,
   codedata     = ex_icd10,
   cc           = "elixhauser",
   id           = "name",
   code         = "icd10"
)

#> Classification based on: icd10
#> # A tibble: 100 x 40
#>    name        surgery    congestive.heart.f… cardiac.arrhythm… valvular.disease
#>    <chr>       <date>     <lgl>               <lgl>             <lgl>           
#>  1 Chen, Trev… 2021-01-19 FALSE               FALSE             FALSE           
#>  2 Graves, Ac… 2020-10-11 FALSE               FALSE             FALSE           
#>  3 Trujillo, … 2020-09-28 FALSE               FALSE             FALSE           
#>  4 Simpson, K… 2020-12-31 FALSE               FALSE             FALSE           
#>  5 Chin, Nels… 2020-12-14 FALSE               FALSE             FALSE           
#>  6 Le, Christ… 2020-07-18 FALSE               FALSE             FALSE           
#>  7 Kang, Xuan  2020-10-20 FALSE               FALSE             FALSE           
#>  8 Shuemaker,… 2020-07-19 FALSE               FALSE             FALSE           
#>  9 Boucher, T… 2020-12-25 FALSE               FALSE             FALSE           
#> 10 Le, Soraiya 2020-11-29 FALSE               FALSE             FALSE           
#> # … with 90 more rows, and 35 more variables:
#> #   pulmonary.circulation.disorder <lgl>, peripheral.vascular.disorder <lgl>,
#> #   hypertension.uncomplicated <lgl>, hypertension.complicated <lgl>,
#> #   paralysis <lgl>, other.neurological.disorders <lgl>,
#> #   chronic.pulmonary.disease <lgl>, diabetes.uncomplicated <lgl>,
#> #   diabetes.complicated <lgl>, hypothyroidism <lgl>, renal.failure <lgl>,
#> #   liver.disease <lgl>, peptic.ulcer.disease <lgl>, AIDS.HIV <lgl>,
#> #   lymphoma <lgl>, metastatic.cancer <lgl>, solid.tumor <lgl>,
#> #   rheumatoid.arthritis <lgl>, coagulopathy <lgl>, obesity <lgl>,
…
# Add Charlson categories and two versions of a calculated index
# ("quan_original" and "quan_updated").
categorize(
   x            = ex_people,
   codedata     = ex_icd10,
   cc           = "charlson",
   id           = "name",
   code         = "icd10",
   index        = c("quan_original", "quan_updated")
)

#> Classification based on: icd10
#> # A tibble: 100 x 21
#>    name      surgery    myocardial.infar… congestive.heart.… peripheral.vascula…
#>    <chr>     <date>     <lgl>             <lgl>              <lgl>              
#>  1 Chen, Tr… 2021-01-19 FALSE             FALSE              FALSE              
#>  2 Graves, … 2020-10-11 FALSE             FALSE              FALSE              
#>  3 Trujillo… 2020-09-28 FALSE             FALSE              FALSE              
#>  4 Simpson,… 2020-12-31 FALSE             FALSE              FALSE              
#>  5 Chin, Ne… 2020-12-14 FALSE             FALSE              FALSE              
#>  6 Le, Chri… 2020-07-18 FALSE             FALSE              FALSE              
#>  7 Kang, Xu… 2020-10-20 FALSE             FALSE              FALSE              
#>  8 Shuemake… 2020-07-19 FALSE             FALSE              FALSE              
#>  9 Boucher,… 2020-12-25 FALSE             FALSE              TRUE               
#> 10 Le, Sora… 2020-11-29 FALSE             FALSE              FALSE              
#> # … with 90 more rows, and 16 more variables: cerebrovascular.disease <lgl>,
#> #   dementia <lgl>, chronic.pulmonary.disease <lgl>, rheumatic.disease <lgl>,
#> #   peptic.ulcer.disease <lgl>, mild.liver.disease <lgl>,
#> #   diabetes.without.complication <lgl>, hemiplegia.or.paraplegia <lgl>,
#> #   renal.disease <lgl>, diabetes.complication <lgl>, malignancy <lgl>,
#> #   moderate.or.severe.liver.disease <lgl>, metastatic.solid.tumor <lgl>,
#> #   AIDS.HIV <lgl>, quan_original <dbl>, quan_updated <dbl>
…
#> Classification based on: icd10
#> # A tibble: 100 x 21
#>    name      surgery    myocardial.infar… congestive.heart.… peripheral.vascula…
#>    <chr>     <date>     <lgl>             <lgl>              <lgl>              
#>  1 Chen, Tr… 2021-01-19 FALSE             FALSE              FALSE              
#>  2 Graves, … 2020-10-11 NA                NA                 NA                 
#>  3 Trujillo… 2020-09-28 NA                NA                 NA                 
#>  4 Simpson,… 2020-12-31 FALSE             FALSE              FALSE              
#>  5 Chin, Ne… 2020-12-14 FALSE             FALSE              FALSE              
#>  6 Le, Chri… 2020-07-18 FALSE             FALSE              FALSE              
#>  7 Kang, Xu… 2020-10-20 FALSE             FALSE              FALSE              
#>  8 Shuemake… 2020-07-19 FALSE             FALSE              FALSE              
#>  9 Boucher,… 2020-12-25 NA                NA                 NA                 
#> 10 Le, Sora… 2020-11-29 FALSE             FALSE              FALSE              
#> # … with 90 more rows, and 16 more variables: cerebrovascular.disease <lgl>,
#> #   dementia <lgl>, chronic.pulmonary.disease <lgl>, rheumatic.disease <lgl>,
#> #   peptic.ulcer.disease <lgl>, mild.liver.disease <lgl>,
#> #   diabetes.without.complication <lgl>, hemiplegia.or.paraplegia <lgl>,
#> #   renal.disease <lgl>, diabetes.complication <lgl>, malignancy <lgl>,
#> #   moderate.or.severe.liver.disease <lgl>, metastatic.solid.tumor <lgl>,
#> #   AIDS.HIV <lgl>, quan_original <dbl>, quan_updated <dbl>
…
# .. and once more with `regex = "icd10_rcs"`
categorize(
   codedata     = ex_icd10,
   cc           = "charlson",
   id           = "name",
   code         = "icd10",
   index        = ind,
   codify_args  = cd,
   cc_args      = list(regex = "icd10_rcs", tech_names = TRUE)
)

#> Classification based on: icd10
#> # A tibble: 100 x 37
#>    name    surgery    charlson_icd10_myo… charlson_icd10_co… charlson_icd10_per…
#>    <chr>   <date>     <lgl>               <lgl>              <lgl>              
#>  1 Chen, … 2021-01-19 FALSE               FALSE              FALSE              
#>  2 Graves… 2020-10-11 NA                  NA                 NA                 
#>  3 Trujil… 2020-09-28 NA                  NA                 NA                 
#>  4 Simpso… 2020-12-31 FALSE               FALSE              FALSE              
#>  5 Chin, … 2020-12-14 FALSE               FALSE              FALSE              
#>  6 Le, Ch… 2020-07-18 FALSE               FALSE              FALSE              
#>  7 Kang, … 2020-10-20 FALSE               FALSE              FALSE              
#>  8 Shuema… 2020-07-19 FALSE               FALSE              FALSE              
#>  9 Bouche… 2020-12-25 NA                  NA                 NA                 
#> 10 Le, So… 2020-11-29 FALSE               FALSE              FALSE              
#> # … with 90 more rows, and 32 more variables:
#> #   charlson_icd10_cerebrovascular_disease <lgl>,
#> #   charlson_icd10_dementia <lgl>,
#> #   charlson_icd10_chronic_pulmonary_disease <lgl>,
#> #   charlson_icd10_rheumatic_disease <lgl>,
#> #   charlson_icd10_peptic_ulcer_disease <lgl>,
#> #   charlson_icd10_mild_liver_disease <lgl>,
#> #   charlson_icd10_diabetes_without_complication <lgl>,
#> #   charlson_icd10_hemiplegia_or_paraplegia <lgl>,
…
#> Classification based on: icd10

# Or use `tech_names = TRUE` for informative but long names (use case above)
tech <-
  categorize(ex_people, codedata = ex_icd10, cc = "elixhauser",
    id = "name", code = "icd10",
    cc_args = list(tech_names = TRUE)
  )

#> Classification based on: icd10

# Compare
tibble::tibble(names(default), names(original), names(tech))

#> # A tibble: 40 x 3
#>    `names(default)`        `names(original)`       `names(tech)`                
#>    <chr>                   <chr>                   <chr>                        
#>  1 name                    name                    name                         
#>  2 surgery                 surgery                 surgery                      
#>  3 congestive.heart.failu… congestive heart failu… elixhauser_icd10_congestive_…
#>  4 cardiac.arrhythmias     cardiac arrhythmias     elixhauser_icd10_cardiac_arr…
#>  5 valvular.disease        valvular disease        elixhauser_icd10_valvular_di…
#>  6 pulmonary.circulation.… pulmonary circulation … elixhauser_icd10_pulmonary_c…
#>  7 peripheral.vascular.di… peripheral vascular di… elixhauser_icd10_peripheral_…
#>  8 hypertension.uncomplic… hypertension uncomplic… elixhauser_icd10_hypertensio…
#>  9 hypertension.complicat… hypertension complicat… elixhauser_icd10_hypertensio…
#> 10 paralysis               paralysis               elixhauser_icd10_paralysis   
#> # … with 30 more rows
…
