Classcodes methods — classcodes • coder
…
    regex     = c("icd10", "icd10_short", "icd9cm", "icd9cm_ahrqweb", "icd9cm_enhanced"),
    indices   = c("sum_all", "sum_all_ahrq", "walraven",
                "sid29", "sid30", "ahrq_mort", "ahrq_readm"),
    hierarchy = NULL
  )
elix
#> 
#> Classcodes object
#>  
#> Regular expressions:
#>    icd10, icd10_short, icd9cm, icd9cm_ahrqweb, icd9cm_enhanced 
#> Indices:
#>    sum_all, sum_all_ahrq, walraven, sid29, sid30, ahrq_mort, ahrq_readm   
#> 
#> # A tibble: 31 × 13
#>    group         icd10 icd10_short icd9cm icd9cm_ahrqweb icd9cm_enhanced sum_all
#>    <chr>         <chr> <chr>       <chr>  <chr>          <chr>             <dbl>
#>  1 congestive h… I(09… I(09|1[13]… 39891… 39891|4(0(2[0… 39891|4(0(2[01…       1
#>  2 cardiac arrh… I(44… I(4[457-9]… 42(6(… NA             42(6([079|1[02…       1
#>  3 valvular dis… A520… A52|I(0[5-… 0932|… 0932|39([4-6]… 0932|39[4-7]|4…       1
#>  4 pulmonary ci… I(2(… I2[678]     41(6|… 41(6|79)       41(5[01]|6|7[0…       1
#>  5 peripheral v… I7([… I7[01389]|… 44(0|… 44([0-2]|3[1-… 0930|4(373|4([…       1
#>  6 hypertension… I10   I10         401[1… 401[19]|6420   401                   1
#>  7 hypertension… I1[1… I1[1-35]    40([2… 40(10|[2-5])|… 40[2-5]               1
#>  8 paralysis     G(04… G(04|11|8[… 34(2[… 34[2-4]|438[2… 3(341|4([23]|4…       1
#>  9 other neurol… G(1[… G(1[0-3]|2… 3(3(1… 3(3([0145]|20… 3(3(19|2[01]|3…       1
#> 10 chronic pulm… (I27… I27|(J([46… 49(([… 49|50([0-5]|6… 4(16[89]|90)|5…       1
#> # ℹ 21 more rows
#> # ℹ 6 more variables: sum_all_ahrq <dbl>, walraven <dbl>, sid29 <dbl>,
#> #   sid30 <dbl>, ahrq_mort <dbl>, ahrq_readm <dbl>
…
    diabetes = c("diabetes complicated", "diabetes uncomplicated")
  )
)
#> 
#> Classcodes object
#>  
#> Regular expressions:
#>    icd10, icd10_short, icd9cm, icd9cm_ahrqweb, icd9cm_enhanced 
#> Indices:
#>    sum_all, sum_all_ahrq, walraven, sid29, sid30, ahrq_mort, ahrq_readm 
#> Hierarchy:
#>    c("metastatic cancer", "solid tumor"),
#>    c("diabetes complicated", "diabetes uncomplicated") 
#> 
#> # A tibble: 31 × 13
#>    group         icd10 icd10_short icd9cm icd9cm_ahrqweb icd9cm_enhanced sum_all
#>    <chr>         <chr> <chr>       <chr>  <chr>          <chr>             <dbl>
#>  1 congestive h… I(09… I(09|1[13]… 39891… 39891|4(0(2[0… 39891|4(0(2[01…       1
#>  2 cardiac arrh… I(44… I(4[457-9]… 42(6(… NA             42(6([079|1[02…       1
#>  3 valvular dis… A520… A52|I(0[5-… 0932|… 0932|39([4-6]… 0932|39[4-7]|4…       1
#>  4 pulmonary ci… I(2(… I2[678]     41(6|… 41(6|79)       41(5[01]|6|7[0…       1
#>  5 peripheral v… I7([… I7[01389]|… 44(0|… 44([0-2]|3[1-… 0930|4(373|4([…       1
#>  6 hypertension… I10   I10         401[1… 401[19]|6420   401                   1
#>  7 hypertension… I1[1… I1[1-35]    40([2… 40(10|[2-5])|… 40[2-5]               1
#>  8 paralysis     G(04… G(04|11|8[… 34(2[… 34[2-4]|438[2… 3(341|4([23]|4…       1
#>  9 other neurol… G(1[… G(1[0-3]|2… 3(3(1… 3(3([0145]|20… 3(3(19|2[01]|3…       1
#> 10 chronic pulm… (I27… I27|(J([46… 49(([… 49|50([0-5]|6… 4(16[89]|90)|5…       1
#> # ℹ 21 more rows
#> # ℹ 6 more variables: sum_all_ahrq <dbl>, walraven <dbl>, sid29 <dbl>,
#> #   sid30 <dbl>, ahrq_mort <dbl>, ahrq_readm <dbl>
…
