Print classcodes object — print.classcodes • rOpenSci: coder
…
# Default printing
elixhauser

#> 
#> Classcodes object
#>  
#> Regular expressions:
#>    icd10, icd10_short, icd9cm, icd9cm_ahrqweb, icd9cm_enhanced 
#> Indices:
#>    sum_all, sum_all_ahrq, walraven, sid29, sid30, ahrq_mort, ahrq_readm 
#> Hierarchy:
#>    c("metastatic cancer", "solid tumor"),
#>    c("diabetes uncomplicated", "diabetes complicated") 
#> 
#> # A tibble: 31 x 13
#>    group  icd10   icd10_short  icd9cm   icd9cm_ahrqweb  icd9cm_enhanced  sum_all
#>    <chr>  <chr>   <chr>        <chr>    <chr>           <chr>              <dbl>
#>  1 conge… I(099|… I(09|1[13]|… 39891|4… 39891|4(0(2[01… 39891|4(0(2[019…       1
#>  2 cardi… I(44[1… I(4[457-9])… 42(6(1[… NA              42(6([079|1[023…       1
#>  3 valvu… A520|I… A52|I(0[5-9… 0932|39… 0932|39([4-6][… 0932|39[4-7]|42…       1
#>  4 pulmo… I(2([6… I2[678]      41(6|79) 41(6|79)        41(5[01]|6|7[08…       1
#>  5 perip… I7([01… I7[01389]|K… 44(0|1[… 44([0-2]|3[1-9… 0930|4(373|4([0…       1
#>  6 hyper… I10     I10          401[19]  401[19]|6420    401                    1
#>  7 hyper… I1[1-3… I1[1-35]     40([24]… 40(10|[2-5])|6… 40[2-5]                1
#>  8 paral… G(041|… G(04|11|8[0… 34(2[01… 34[2-4]|438[2-… 3(341|4([23]|4[…       1
#>  9 other… G(1[0-… G(1[0-3]|2[… 3(3(19|… 3(3([0145]|20|… 3(3(19|2[01]|3(…       1
#> 10 chron… (I27[8… I27|(J([46]… 49(([01… 49|50([0-5]|6[… 4(16[89]|90)|50…       1
#> # … with 21 more rows, and 6 more variables: sum_all_ahrq <dbl>,
#> #   walraven <dbl>, sid29 <dbl>, sid30 <dbl>, ahrq_mort <dbl>, ahrq_readm <dbl>
…
