Summarizing a classcodes object — summary.classcodes • rOpenSci: coder
…
# summary.classcodes() ----------------------------------------------------

# Summarize all ICD-10-CM codes identified by the Elixhauser
# comorbidity classification
# See `?decoder::icd10cm` for details
summary(elixhauser, coding = "icd10cm")

#> Classification based on: icd10
#> 
#> Summary of classcodes object
#> 
#> Recognized codes per group:
#> 
#> # A tibble: 31 x 3
#>    group                   n codes                                              
#>    <chr>               <int> <chr>                                              
#>  1 AIDS/HIV                1 B20                                                
#>  2 alcohol abuse         131 E52, F1010, F1011, F10120, F10121, F10129, F1014, …
#>  3 blood loss anemia       1 D500                                               
#>  4 cardiac arrhythmias    73 I441, I442, I4430, I4439, I456, I459, I470, I471, …
#>  5 chronic pulmonary …    69 I27812, I27822, I27832, I27892, I2792, J40, J410, …
#>  6 coagulopathy           27 D65, D66, D67, D680, D681, D682, D68311, D68312, D…
#>  7 congestive heart f…    36 I099, I1101, I1301, I1321, I255, I420, I425, I4261…
#>  8 deficiency anemia      17 D508, D509, D510, D511, D512, D513, D518, D519, D5…
#>  9 depression             31 F3130, F3131, F3132, F314, F3152, F320, F321, F322…
#> 10 diabetes complicat…   243 E1021, E1022, E1029, E10311, E10319, E103211, E103…
#> # … with 21 more rows
#> 
#>  Use function visualize() for a graphical representation.

# Is there a difference if instead considering the Swedish ICD-10-SE?
# See `?decoder::icd10se` for details
summary(elixhauser, coding = "icd10se")

#> Classification based on: icd10
#> 
#> Summary of classcodes object
#> 
#> Recognized codes per group:
#> 
#> # A tibble: 31 x 3
#>    group                   n codes                                              
#>    <chr>               <int> <chr>                                              
#>  1 AIDS/HIV               22 B200, B201, B202, B203, B204, B205, B206, B207, B2…
#>  2 alcohol abuse          30 E529, F100, F101, F102, F102A, F102B, F102X, F103,…
#>  3 blood loss anemia       1 D500                                               
#>  4 cardiac arrhythmias    45 I441, I441A, I441B, I442, I443, I456, I456A, I456B…
#>  5 chronic pulmonary …    57 I2782, I2792, J409, J410, J411, J418, J429, J430, …
#>  6 coagulopathy           29 D659, D669, D679, D680, D681, D682, D683, D684, D6…
#>  7 congestive heart f…    19 I099, I1101, I1301, I1321, I255, I420, I425, I4261…
#>  8 deficiency anemia      17 D508, D509, D510, D511, D512, D513, D518, D519, D5…
#>  9 depression             22 F2042, F313, F314, F3152, F320, F321, F322, F323, …
#> 10 diabetes complicat…    93 E102, E102A, E102B, E102C, E102W, E102X, E103, E10…
#> # … with 21 more rows
…
