Classcodes • rOpenSci: coder
…
      Source: vignettes/classcodes.Rmd
      classcodes.Rmd

library(coder)

Motivating example

Let’s consider some example data (ex_peopple and ex_icd10) from vignette("ex_data").

Let’s categorize those patients by their Charlson comorbidity:

categorize(ex_people, codedata = ex_icd10, cc = charlson, id = "name", code = "icd10")
#> Classification based on: icd10
#> # A tibble: 100 x 25
#>    name      surgery    myocardial.infar… congestive.heart.… peripheral.vascula…
#>    <chr>     <date>     <lgl>             <lgl>              <lgl>              
#>  1 Chen, Tr… 2021-01-19 FALSE             FALSE              FALSE              
#>  2 Graves, … 2020-10-11 FALSE             FALSE              FALSE              
#>  3 Trujillo… 2020-09-28 FALSE             FALSE              FALSE              
#>  4 Simpson,… 2020-12-31 FALSE             FALSE              FALSE              
#>  5 Chin, Ne… 2020-12-14 FALSE             FALSE              FALSE              
#>  6 Le, Chri… 2020-07-18 FALSE             FALSE              FALSE              
#>  7 Kang, Xu… 2020-10-20 FALSE             FALSE              FALSE              
#>  8 Shuemake… 2020-07-19 FALSE             FALSE              FALSE              
#>  9 Boucher,… 2020-12-25 FALSE             FALSE              TRUE               
#> 10 Le, Sora… 2020-11-29 FALSE             FALSE              FALSE              
#> # … with 90 more rows, and 20 more variables: cerebrovascular.disease <lgl>,
#> #   dementia <lgl>, chronic.pulmonary.disease <lgl>, rheumatic.disease <lgl>,
#> #   peptic.ulcer.disease <lgl>, mild.liver.disease <lgl>,
#> #   diabetes.without.complication <lgl>, hemiplegia.or.paraplegia <lgl>,
#> #   renal.disease <lgl>, diabetes.complication <lgl>, malignancy <lgl>,
#> #   moderate.or.severe.liver.disease <lgl>, metastatic.solid.tumor <lgl>,
#> #   AIDS.HIV <lgl>, charlson <dbl>, deyo_ramano <dbl>, dhoore <dbl>,
#> #   ghali <dbl>, quan_original <dbl>, quan_updated <dbl>
…
