coder • rOpenSci: coder
…
As for all classcodes objects in the package, additional information and references are found in the object documentation (?rxriskv).

Concrete example

Let us consider the hypothetical setting above using some example data (ex_peopple and ex_atc) as described in vignette("ex_data").

Default categorization

A first attempt to calculate the Rx Risk V score for each patient:

default <- categorize(
    ex_people, codedata = ex_atc, cc = rxriskv, id = "name", code = "atc")
#> Classification based on: atc_pratt
default
#> # A tibble: 100 x 50
#>    name       surgery    Alcohol.depende… Allergies Anticoagulants Antiplatelets
#>    <chr>      <date>     <lgl>            <lgl>     <lgl>          <lgl>        
#>  1 Chen, Tre… 2021-01-19 FALSE            TRUE      TRUE           FALSE        
#>  2 Graves, A… 2020-10-11 FALSE            FALSE     FALSE          FALSE        
#>  3 Trujillo,… 2020-09-28 FALSE            FALSE     FALSE          FALSE        
#>  4 Simpson, … 2020-12-31 FALSE            TRUE      FALSE          FALSE        
#>  5 Chin, Nel… 2020-12-14 FALSE            FALSE     FALSE          TRUE         
#>  6 Le, Chris… 2020-07-18 FALSE            FALSE     FALSE          FALSE        
#>  7 Kang, Xuan 2020-10-20 FALSE            TRUE      FALSE          TRUE         
#>  8 Shuemaker… 2020-07-19 FALSE            FALSE     FALSE          FALSE        
#>  9 Boucher, … 2020-12-25 FALSE            FALSE     FALSE          FALSE        
#> 10 Le, Sorai… 2020-11-29 FALSE            FALSE     FALSE          FALSE        
#> # … with 90 more rows, and 44 more variables: Anxiety <lgl>, Arrhythmia <lgl>,
#> #   Benign.prostatic.hyperplasia <lgl>, Bipolar.disorder <lgl>,
#> #   Chronic.airways.disease <lgl>, Congestive.heart.failure <lgl>,
#> #   Dementia <lgl>, Depression <lgl>, Diabetes <lgl>, Epilepsy <lgl>,
#> #   Gastrooesophageal.reflux.disease <lgl>, Glaucoma <lgl>, Gout <lgl>,
#> #   Hepatitis.B <lgl>, Hepatitis.C <lgl>, HIV <lgl>, Hyperkalaemia <lgl>,
#> #   Hyperlipidaemia <lgl>, Hypertension <lgl>, Hyperthyroidism <lgl>,
#> #   Hypothyroidism <lgl>, Incontinence <lgl>, Inflammation.pain <lgl>,
#> #   Irritable.bowel.syndrome <lgl>,
…
Dirty code data

Let’s assume that our code data is not as clean as simulated above.

s <- function(x) sample(x, 1e3, replace = TRUE)

ex_atc$code <- 
  paste0(
    s(letters), s(0:9), s(letters), s(c(".", "-", "?")), 
    ex_atc$atc, s(letters), s(0:9)
  )

ex_atc
#> # A tibble: 10,000 x 4
#>    name                 atc      prescription code          
#>    <chr>                <chr>    <date>       <chr>         
#>  1 Le, Soraiya          L03AA16  2018-10-23   q8n.L03AA16k1 
#>  2 Cleveland, Mark      J07CA01  2016-07-02   w8k?J07CA01h4 
#>  3 Santistevan, Charlie QJ57EA06 2011-12-12   q5f-QJ57EA06x0
#>  4 Meier, Hayden        R03DB04  2017-04-13   q1q?R03DB04c9 
#>  5 Hill, Audrey         V09IA01  2014-09-26   i7m?V09IA01j5 
#>  6 Thumma, Phillip      L02AE02  2010-11-04   b3d-L02AE02r0 
#>  7 Yost, Rebecca        S01EB06  2015-03-29   l2h?S01EB06b7 
#>  8 Mandakh, Joseph      A03DA01  2016-10-30   r1e?A03DA01f9 
#>  9 Meier, Hayden        C09AA13  2019-04-21   y1f-C09AA13m4 
#> 10 Trinh, Schuyler      A07EA03  2021-02-18   y6z?A07EA03q6 
#> # … with 9,990 more rows
…
